{
  "pagination": {
    "total": 100,
    "per_page": 10,
    "current_page": 1,
    "last_page": 10
  },
  "data": [
    {
      "id": 1,
      "name": "Nike T-Shirt",
      "price": 10000,
      "stock": 10,
      "category": {
        "id": 1,
        "name": "shirt"
      }
    },
    {
      "id": 2,
      "name": "Nike Shoes",
      "price": 50000,
      "stock": 7,
      "category": {
        "id": 2,
        "name": "shoes"
      }
    }
  ]
}
